{
    "data": [
        {
            "id": "699741",
            "user": {
                "label": "diego.martignoni@lemonpie.it",
                "value": "diego.martignoni@lemonpie.it"
            },
            "http": {
                "status": {
                    "label": "200 - OK",
                    "value": 200
                },
                "method": "GET",
                "url": "http://localhost:5000/api/v2/storeportal?name=boh",
                "request": {},
                "response": {"data":[]}
            }
        }
    ],
    "page": 1,
    "pages": 15,
    "count": 233
}